set terminal wxt size 1600, 300
set xrange[0:9999]
set yrange[-619.532141:763.002257]
set grid
set obj rect from 8653, graph 0 to 8752, graph 1 back fc lt -1 fs trans solid 0.1 noborder
set obj rect from 8469, graph 0 to 8568, graph 1 back fc lt -1 fs trans solid 0.1 noborder
set obj rect from 8469, graph 0 to 8568, graph 1 back fc lt -1 fs trans solid 0.1 noborder
set obj rect from 808, graph 0 to 907, graph 1 back fc lt -1 fs trans solid 0.1 noborder
set obj rect from 808, graph 0 to 907, graph 1 back fc lt -1 fs trans solid 0.1 noborder
plot "time_series_0.csv" notitle with lines