set terminal wxt size 1600, 300
set xrange[0:9999]
set yrange[-914.452758:1137.541526]
set grid
set obj rect from 1159, graph 0 to 1258, graph 1 back fc lt -1 fs trans solid 0.1 noborder
set obj rect from 1159, graph 0 to 1258, graph 1 back fc lt -1 fs trans solid 0.1 noborder
set obj rect from 8622, graph 0 to 8721, graph 1 back fc lt -1 fs trans solid 0.1 noborder
set obj rect from 8073, graph 0 to 8172, graph 1 back fc lt -1 fs trans solid 0.1 noborder
set obj rect from 8073, graph 0 to 8172, graph 1 back fc lt -1 fs trans solid 0.1 noborder
plot "time_series_0.csv" notitle with lines