set terminal wxt size 1600, 300
set xrange[0:9999]
set yrange[-839.522654:646.619764]
set grid
set obj rect from 489, graph 0 to 588, graph 1 back fc lt -1 fs trans solid 0.1 noborder
set obj rect from 489, graph 0 to 588, graph 1 back fc lt -1 fs trans solid 0.1 noborder
set obj rect from 6081, graph 0 to 6180, graph 1 back fc lt -1 fs trans solid 0.1 noborder
set obj rect from 1969, graph 0 to 2068, graph 1 back fc lt -1 fs trans solid 0.1 noborder
set obj rect from 1969, graph 0 to 2068, graph 1 back fc lt -1 fs trans solid 0.1 noborder
plot "time_series_0.csv" notitle with lines