set terminal wxt size 1600, 300
set xrange[0:9999]
set yrange[-1978.122419:866.874126]
set grid
set obj rect from 7395, graph 0 to 7494, graph 1 back fc lt -1 fs trans solid 0.1 noborder
set obj rect from 7765, graph 0 to 7864, graph 1 back fc lt -1 fs trans solid 0.1 noborder
set obj rect from 7765, graph 0 to 7864, graph 1 back fc lt -1 fs trans solid 0.1 noborder
set obj rect from 1380, graph 0 to 1479, graph 1 back fc lt -1 fs trans solid 0.1 noborder
set obj rect from 1380, graph 0 to 1479, graph 1 back fc lt -1 fs trans solid 0.1 noborder
plot "time_series_0.csv" notitle with lines