set terminal wxt size 1600, 300
set xrange[0:9999]
set yrange[-1013.220592:667.344133]
set grid
set obj rect from 5974, graph 0 to 6073, graph 1 back fc lt -1 fs trans solid 0.1 noborder
set obj rect from 4228, graph 0 to 4327, graph 1 back fc lt -1 fs trans solid 0.1 noborder
set obj rect from 4228, graph 0 to 4327, graph 1 back fc lt -1 fs trans solid 0.1 noborder
set obj rect from 5974, graph 0 to 6073, graph 1 back fc lt -1 fs trans solid 0.1 noborder
set obj rect from 4522, graph 0 to 4621, graph 1 back fc lt -1 fs trans solid 0.1 noborder
plot "time_series_0.csv" notitle with lines