set terminal wxt size 1600, 300
set xrange[0:9999]
set yrange[-811.553132:997.406179]
set grid
set obj rect from 4086, graph 0 to 4185, graph 1 back fc lt -1 fs trans solid 0.1 noborder
set obj rect from 4086, graph 0 to 4185, graph 1 back fc lt -1 fs trans solid 0.1 noborder
set obj rect from 5990, graph 0 to 6089, graph 1 back fc lt -1 fs trans solid 0.1 noborder
set obj rect from 5990, graph 0 to 6089, graph 1 back fc lt -1 fs trans solid 0.1 noborder
set obj rect from 2075, graph 0 to 2174, graph 1 back fc lt -1 fs trans solid 0.1 noborder
plot "time_series_0.csv" notitle with lines