set terminal wxt size 1600, 300
set xrange[0:9999]
set yrange[-970.908443:769.409388]
set grid
set obj rect from 8379, graph 0 to 8478, graph 1 back fc lt -1 fs trans solid 0.1 noborder
set obj rect from 8379, graph 0 to 8478, graph 1 back fc lt -1 fs trans solid 0.1 noborder
set obj rect from 1070, graph 0 to 1169, graph 1 back fc lt -1 fs trans solid 0.1 noborder
set obj rect from 2798, graph 0 to 2897, graph 1 back fc lt -1 fs trans solid 0.1 noborder
set obj rect from 2798, graph 0 to 2897, graph 1 back fc lt -1 fs trans solid 0.1 noborder
plot "time_series_0.csv" notitle with lines