set terminal wxt size 1600, 300
set xrange[0:9999]
set yrange[-719.796225:1052.165208]
set grid
set obj rect from 9388, graph 0 to 9487, graph 1 back fc lt -1 fs trans solid 0.1 noborder
set obj rect from 5797, graph 0 to 5896, graph 1 back fc lt -1 fs trans solid 0.1 noborder
set obj rect from 1633, graph 0 to 1732, graph 1 back fc lt -1 fs trans solid 0.1 noborder
set obj rect from 1633, graph 0 to 1732, graph 1 back fc lt -1 fs trans solid 0.1 noborder
set obj rect from 5797, graph 0 to 5896, graph 1 back fc lt -1 fs trans solid 0.1 noborder
plot "time_series_0.csv" notitle with lines