set terminal wxt size 1600, 300
set xrange[0:9999]
set yrange[-1284.930679:640.369493]
set grid
set obj rect from 1076, graph 0 to 1175, graph 1 back fc lt -1 fs trans solid 0.1 noborder
set obj rect from 1076, graph 0 to 1175, graph 1 back fc lt -1 fs trans solid 0.1 noborder
set obj rect from 9587, graph 0 to 9686, graph 1 back fc lt -1 fs trans solid 0.1 noborder
set obj rect from 9587, graph 0 to 9686, graph 1 back fc lt -1 fs trans solid 0.1 noborder
set obj rect from 5691, graph 0 to 5790, graph 1 back fc lt -1 fs trans solid 0.1 noborder
plot "time_series_0.csv" notitle with lines