set terminal wxt size 1600, 300
set xrange[0:9999]
set yrange[-1113.346892:502.364891]
set grid
set obj rect from 1448, graph 0 to 1547, graph 1 back fc lt -1 fs trans solid 0.1 noborder
set obj rect from 9814, graph 0 to 9913, graph 1 back fc lt -1 fs trans solid 0.1 noborder
set obj rect from 9814, graph 0 to 9913, graph 1 back fc lt -1 fs trans solid 0.1 noborder
set obj rect from 1448, graph 0 to 1547, graph 1 back fc lt -1 fs trans solid 0.1 noborder
set obj rect from 9114, graph 0 to 9213, graph 1 back fc lt -1 fs trans solid 0.1 noborder
plot "time_series_0.csv" notitle with lines