set terminal wxt size 1600, 300
set xrange[0:9999]
set yrange[-746.625956:1108.531996]
set grid
set obj rect from 4273, graph 0 to 4372, graph 1 back fc lt -1 fs trans solid 0.1 noborder
set obj rect from 6961, graph 0 to 7060, graph 1 back fc lt -1 fs trans solid 0.1 noborder
plot "time_series_0.csv" notitle with lines