set terminal wxt size 1600, 300
set xrange[0:9999]
set yrange[-745.405692:814.118859]
set grid
set obj rect from 19, graph 0 to 118, graph 1 back fc lt -1 fs trans solid 0.1 noborder
set obj rect from 19, graph 0 to 118, graph 1 back fc lt -1 fs trans solid 0.1 noborder
set obj rect from 1239, graph 0 to 1338, graph 1 back fc lt -1 fs trans solid 0.1 noborder
set obj rect from 3592, graph 0 to 3691, graph 1 back fc lt -1 fs trans solid 0.1 noborder
set obj rect from 3592, graph 0 to 3691, graph 1 back fc lt -1 fs trans solid 0.1 noborder
plot "time_series_0.csv" notitle with lines