set terminal wxt size 1600, 300
set xrange[0:9999]
set yrange[-739.178712:1046.377132]
set grid
set obj rect from 9801, graph 0 to 9900, graph 1 back fc lt -1 fs trans solid 0.1 noborder
set obj rect from 9127, graph 0 to 9226, graph 1 back fc lt -1 fs trans solid 0.1 noborder
set obj rect from 9127, graph 0 to 9226, graph 1 back fc lt -1 fs trans solid 0.1 noborder
set obj rect from 5095, graph 0 to 5194, graph 1 back fc lt -1 fs trans solid 0.1 noborder
set obj rect from 5095, graph 0 to 5194, graph 1 back fc lt -1 fs trans solid 0.1 noborder
plot "time_series_0.csv" notitle with lines