set terminal wxt size 1600, 300
set xrange[0:9999]
set yrange[-977.294005:984.157706]
set grid
set obj rect from 6309, graph 0 to 6408, graph 1 back fc lt -1 fs trans solid 0.1 noborder
set obj rect from 6309, graph 0 to 6408, graph 1 back fc lt -1 fs trans solid 0.1 noborder
set obj rect from 9182, graph 0 to 9281, graph 1 back fc lt -1 fs trans solid 0.1 noborder
set obj rect from 3372, graph 0 to 3471, graph 1 back fc lt -1 fs trans solid 0.1 noborder
set obj rect from 3372, graph 0 to 3471, graph 1 back fc lt -1 fs trans solid 0.1 noborder
plot "time_series_0.csv" notitle with lines