set terminal wxt size 1600, 300
set xrange[0:9999]
set yrange[-669.012940:798.935989]
set grid
set obj rect from 5333, graph 0 to 5432, graph 1 back fc lt -1 fs trans solid 0.1 noborder
set obj rect from 3974, graph 0 to 4073, graph 1 back fc lt -1 fs trans solid 0.1 noborder
set obj rect from 3974, graph 0 to 4073, graph 1 back fc lt -1 fs trans solid 0.1 noborder
set obj rect from 5140, graph 0 to 5239, graph 1 back fc lt -1 fs trans solid 0.1 noborder
set obj rect from 5140, graph 0 to 5239, graph 1 back fc lt -1 fs trans solid 0.1 noborder
plot "time_series_0.csv" notitle with lines