set terminal wxt size 1600, 300
set xrange[0:9999]
set yrange[-1454.083947:484.398975]
set grid
set obj rect from 15, graph 0 to 114, graph 1 back fc lt -1 fs trans solid 0.1 noborder
set obj rect from 4333, graph 0 to 4432, graph 1 back fc lt -1 fs trans solid 0.1 noborder
plot "time_series_0.csv" notitle with lines