set terminal wxt size 1600, 300
set xrange[0:9999]
set yrange[-914.455996:989.555611]
set grid
set obj rect from 1196, graph 0 to 1295, graph 1 back fc lt -1 fs trans solid 0.1 noborder
set obj rect from 1196, graph 0 to 1295, graph 1 back fc lt -1 fs trans solid 0.1 noborder
set obj rect from 4469, graph 0 to 4568, graph 1 back fc lt -1 fs trans solid 0.1 noborder
set obj rect from 4469, graph 0 to 4568, graph 1 back fc lt -1 fs trans solid 0.1 noborder
set obj rect from 2831, graph 0 to 2930, graph 1 back fc lt -1 fs trans solid 0.1 noborder
plot "time_series_0.csv" notitle with lines