set terminal wxt size 1600, 300
set xrange[0:9999]
set yrange[-1175.108650:790.094146]
set grid
set obj rect from 9082, graph 0 to 9181, graph 1 back fc lt -1 fs trans solid 0.1 noborder
set obj rect from 2943, graph 0 to 3042, graph 1 back fc lt -1 fs trans solid 0.1 noborder
plot "time_series_0.csv" notitle with lines