set terminal wxt size 1600, 300
set xrange[0:9999]
set yrange[-776.204061:1059.624780]
set grid
set obj rect from 3584, graph 0 to 3683, graph 1 back fc lt -1 fs trans solid 0.1 noborder
set obj rect from 6571, graph 0 to 6670, graph 1 back fc lt -1 fs trans solid 0.1 noborder
set obj rect from 6571, graph 0 to 6670, graph 1 back fc lt -1 fs trans solid 0.1 noborder
set obj rect from 1272, graph 0 to 1371, graph 1 back fc lt -1 fs trans solid 0.1 noborder
set obj rect from 1272, graph 0 to 1371, graph 1 back fc lt -1 fs trans solid 0.1 noborder
plot "time_series_0.csv" notitle with lines